Molecules Subgroup,
,De-Liang Long
,Daniel Salley
,Sebastian Manzano
,Bartosz Mateusz Matysiak
,Manuel Kupper
,Artem Leonov
,Emma Carrick
,Andrius Bubliauskas
,Zoe Sinclair
,Alex Hammer
,Haralampos Miras
,Alexander Telfar
,Maria Diana Castro Spencer
,Alasdair MacLeod
,Edward Lee
,Stuart Smith
Aliens Subgroup,
,Jessica Bame
,Juan Manuel Parrilla Gutierrez
,Jennifer Mathieson
,Stuart Marshall
,David Lockey
,Yibin Jiang
,Ernest Yu Liu
,Henry Powell-Davies
,Alin Pirvan
,Jaroslaw Granda
,Davide Angelone
,Catriona MacGregor
,Alexander Elliot
,Sofia Della Sala
,Geoff Cooper
,Annamaria Miller
Gaia Subgroup,
,Nicola Bell
,Robert Pow
,Daniel Kowalski
,Simon Rohrbach
,Greig Chisholm 
,Tingting Zhao
,Marcus Ng
,Wenduan Hou
,Jim McIver
,Cindy Wang 
,Liam Wilbraham
,Michael Saleeb
,Eduard Garrido Ribo
,Baran Ciben
,Naomi Johnson
,Ekaterina Trushina
Wall-E Subgroup,
,Mindaugas Siauciulis
,Przemek Frei
,Matthew Craven
,Abhishek Sharma
,Silke Asche
,Balamurugan Kandasamy
,Hessam Mehr
,Cole Mathis
,Phil Kitson
,Dario Caramelli
,Shan She
,David Doran
,Aamir Khan
,Emma Clarke
,Pablo Martinez Bulit
,Graham Keenan